{
  "totalNumberOfPages":"3",
  "limit":"10",
  "requests": [
    {
      "status": "NEW",
      "providerEngagementRequestIdentifier": "380MR2019061921001",
      "providerName": "Murphy, Shaun L.",
      "capabilityIndicatorDescription": "Stars Care Gap",
      "firstTimeSentToHostPlanDate": "02/23/2020",
      "age": 1,
      "showAlert": false
    },
    {
      "status": "Pending",
      "providerEngagementRequestIdentifier": "380MR2015481568945",
      "providerName": "McCoy, Leonard E.",
      "capabilityIndicatorDescription": "Risk Adjustment Gap",
      "firstTimeSentToHostPlanDate": "01/24/2020",
      "age": 2,
      "showAlert": false
    },
    {
      "status": "Pending",
      "providerEngagementRequestIdentifier": "380MR2018874519598",
      "providerName": "Pepper, Charles D.",
      "capabilityIndicatorDescription": "Medical Record Retrieval",
      "firstTimeSentToHostPlanDate": "01/24/2020",
      "age": 3,
      "showAlert": false
    },
    {
      "status": "Engaged",
      "providerEngagementRequestIdentifier": "380MR2016645815689",
      "providerName": "Dorian, John M.",
      "capabilityIndicatorDescription": "Stars Care Gap",
      "firstTimeSentToHostPlanDate": "01/24/2020",
      "age": 4,
      "showAlert": false
    },
    {
      "status": "Error",
      "providerEngagementRequestIdentifier": "380MR2018851515599",
      "providerName": "Howser, Douglas B.",
      "capabilityIndicatorDescription": "Stars Care Gap",
      "firstTimeSentToHostPlanDate": "01/15/2020",
      "age": 5,
      "showAlert": false
    },
    {
      "status": "Complete",
      "providerEngagementRequestIdentifier": "380MR2017784877311",
      "providerName": "Young, Andre R.",
      "capabilityIndicatorDescription": "Medical Record Retrieval",
      "firstTimeSentToHostPlanDate": "01/15/2020",
      "age": 6,
      "showAlert": false
    },
    {
      "status": "Complete",
      "providerEngagementRequestIdentifier": "380MR2015481568945",
      "providerName": "House, Gregory P.",
      "capabilityIndicatorDescription": "Stars Care Gap",
      "firstTimeSentToHostPlanDate": "01/15/2020",
      "age": 7,
      "showAlert": false
    },
    {
      "status": "Complete",
      "providerEngagementRequestIdentifier": "380MR2018898851207",
      "providerName": "Pierce, Benjamin F.",
      "capabilityIndicatorDescription": "Risk Adjustment Gap",
      "firstTimeSentToHostPlanDate": "01/01/2020",
      "age": 8,
      "showAlert": false
    },
    {
      "status": "Pending",
      "providerEngagementRequestIdentifier": "380MR2015565620011",
      "providerName": "Reid, Elliot S.",
      "capabilityIndicatorDescription": "Medical Record Retrieval",
      "firstTimeSentToHostPlanDate": "01/01/2020",
      "age": 9,
      "showAlert": true
    },
    {
      "status": "Complete",
      "providerEngagementRequestIdentifier": "380MR2015644518258",
      "providerName": "Quinn, Michaela A.",
      "capabilityIndicatorDescription": "Risk Adjustment Gap",
      "firstTimeSentToHostPlanDate": "01/01/2020",
      "age": 10,
      "showAlert": false
    },
    {
      "status": "NEW",
      "providerEngagementRequestIdentifier": "380MR2019061921001",
      "providerName": "Murphy, Shaun L.",
      "capabilityIndicatorDescription": "Stars Care Gap",
      "firstTimeSentToHostPlanDate": "02/23/2020",
      "age": 11,
      "showAlert": false
    },
    {
      "status": "Pending",
      "providerEngagementRequestIdentifier": "380MR2015481568945",
      "providerName": "McCoy, Leonard E.",
      "capabilityIndicatorDescription": "Risk Adjustment Gap",
      "firstTimeSentToHostPlanDate": "01/24/2020",
      "age": 12,
      "showAlert": false
    },
    {
      "status": "Pending",
      "providerEngagementRequestIdentifier": "380MR2018874519598",
      "providerName": "Pepper, Charles D.",
      "capabilityIndicatorDescription": "Medical Record Retrieval",
      "firstTimeSentToHostPlanDate": "01/24/2020",
      "age": 13,
      "showAlert": false
    },
    {
      "status": "Engaged",
      "providerEngagementRequestIdentifier": "380MR2016645815689",
      "providerName": "Dorian, John M.",
      "capabilityIndicatorDescription": "Stars Care Gap",
      "firstTimeSentToHostPlanDate": "01/24/2020",
      "age": 14,
      "showAlert": false
    },
    {
      "status": "Error",
      "providerEngagementRequestIdentifier": "380MR2018851515599",
      "providerName": "Howser, Douglas B.",
      "capabilityIndicatorDescription": "Stars Care Gap",
      "firstTimeSentToHostPlanDate": "01/15/2020",
      "age": 15,
      "showAlert": false
    },
    {
      "status": "Complete",
      "providerEngagementRequestIdentifier": "380MR2017784877311",
      "providerName": "Young, Andre R.",
      "capabilityIndicatorDescription": "Medical Record Retrieval",
      "firstTimeSentToHostPlanDate": "01/15/2020",
      "age": 16,
      "showAlert": false
    },
    {
      "status": "Complete",
      "providerEngagementRequestIdentifier": "380MR2015481568945",
      "providerName": "House, Gregory P.",
      "capabilityIndicatorDescription": "Stars Care Gap",
      "firstTimeSentToHostPlanDate": "01/15/2020",
      "age": 17,
      "showAlert": false
    },
    {
      "status": "Complete",
      "providerEngagementRequestIdentifier": "380MR2018898851207",
      "providerName": "Pierce, Benjamin F.",
      "capabilityIndicatorDescription": "Risk Adjustment Gap",
      "firstTimeSentToHostPlanDate": "01/01/2020",
      "age": 18,
      "showAlert": false
    },
    {
      "status": "Pending",
      "providerEngagementRequestIdentifier": "380MR2015565620011",
      "providerName": "Reid, Elliot S.",
      "capabilityIndicatorDescription": "Medical Record Retrieval",
      "firstTimeSentToHostPlanDate": "01/01/2020",
      "age": 19,
      "showAlert": true
    },
    {
      "status": "Complete",
      "providerEngagementRequestIdentifier": "380MR2015644518258",
      "providerName": "Quinn, Michaela A.",
      "capabilityIndicatorDescription": "Risk Adjustment Gap",
      "firstTimeSentToHostPlanDate": "01/01/2020",
      "age": 20,
      "showAlert": false
    },
    {
      "status": "NEW",
      "providerEngagementRequestIdentifier": "380MR2019061921001",
      "providerName": "Murphy, Shaun L.",
      "capabilityIndicatorDescription": "Stars Care Gap",
      "firstTimeSentToHostPlanDate": "02/23/2020",
      "age": 21,
      "showAlert": false
    },
    {
      "status": "Pending",
      "providerEngagementRequestIdentifier": "380MR2015481568945",
      "providerName": "McCoy, Leonard E.",
      "capabilityIndicatorDescription": "Risk Adjustment Gap",
      "firstTimeSentToHostPlanDate": "01/24/2020",
      "age": 22,
      "showAlert": false
    },
    {
      "status": "Pending",
      "providerEngagementRequestIdentifier": "380MR2018874519598",
      "providerName": "Pepper, Charles D.",
      "capabilityIndicatorDescription": "Medical Record Retrieval",
      "firstTimeSentToHostPlanDate": "01/24/2020",
      "age": 23,
      "showAlert": false
    },
    {
      "status": "Engaged",
      "providerEngagementRequestIdentifier": "380MR2016645815689",
      "providerName": "Dorian, John M.",
      "capabilityIndicatorDescription": "Stars Care Gap",
      "firstTimeSentToHostPlanDate": "01/24/2020",
      "age": 24,
      "showAlert": false
    },
    {
      "status": "Error",
      "providerEngagementRequestIdentifier": "380MR2018851515599",
      "providerName": "Howser, Douglas B.",
      "capabilityIndicatorDescription": "Stars Care Gap",
      "firstTimeSentToHostPlanDate": "01/15/2020",
      "age": 25,
      "showAlert": false
    },
    {
      "status": "Complete",
      "providerEngagementRequestIdentifier": "380MR2017784877311",
      "providerName": "Young, Andre R.",
      "capabilityIndicatorDescription": "Medical Record Retrieval",
      "firstTimeSentToHostPlanDate": "01/15/2020",
      "age": 26,
      "showAlert": false
    },
    {
      "status": "Complete",
      "providerEngagementRequestIdentifier": "380MR2015481568945",
      "providerName": "House, Gregory P.",
      "capabilityIndicatorDescription": "Stars Care Gap",
      "firstTimeSentToHostPlanDate": "01/15/2020",
      "age": 27,
      "showAlert": false
    },
    {
      "status": "Complete",
      "providerEngagementRequestIdentifier": "380MR2018898851207",
      "providerName": "Pierce, Benjamin F.",
      "capabilityIndicatorDescription": "Risk Adjustment Gap",
      "firstTimeSentToHostPlanDate": "01/01/2020",
      "age": 28,
      "showAlert": false
    },
    {
      "status": "Pending",
      "providerEngagementRequestIdentifier": "380MR2015565620011",
      "providerName": "Reid, Elliot S.",
      "capabilityIndicatorDescription": "Medical Record Retrieval",
      "firstTimeSentToHostPlanDate": "01/01/2020",
      "age": 29,
      "showAlert": true
    },
    {
      "status": "Complete",
      "providerEngagementRequestIdentifier": "380MR2015644518258",
      "providerName": "Quinn, Michaela A.",
      "capabilityIndicatorDescription": "Risk Adjustment Gap",
      "firstTimeSentToHostPlanDate": "01/01/2020",
      "age": 30,
      "showAlert": false
    },
    {
      "status": "NEW",
      "providerEngagementRequestIdentifier": "380MR2019061921001",
      "providerName": "Murphy, Shaun L.",
      "capabilityIndicatorDescription": "Stars Care Gap",
      "firstTimeSentToHostPlanDate": "02/23/2020",
      "age": 31,
      "showAlert": false
    },
    {
      "status": "Pending",
      "providerEngagementRequestIdentifier": "380MR2015481568945",
      "providerName": "McCoy, Leonard E.",
      "capabilityIndicatorDescription": "Risk Adjustment Gap",
      "firstTimeSentToHostPlanDate": "01/24/2020",
      "age": 32,
      "showAlert": false
    },
    {
      "status": "Pending",
      "providerEngagementRequestIdentifier": "380MR2018874519598",
      "providerName": "Pepper, Charles D.",
      "capabilityIndicatorDescription": "Medical Record Retrieval",
      "firstTimeSentToHostPlanDate": "01/24/2020",
      "age": 33,
      "showAlert": false
    },
    {
      "status": "Engaged",
      "providerEngagementRequestIdentifier": "380MR2016645815689",
      "providerName": "Dorian, John M.",
      "capabilityIndicatorDescription": "Stars Care Gap",
      "firstTimeSentToHostPlanDate": "01/24/2020",
      "age": 34,
      "showAlert": false
    },
    {
      "status": "Error",
      "providerEngagementRequestIdentifier": "380MR2018851515599",
      "providerName": "Howser, Douglas B.",
      "capabilityIndicatorDescription": "Stars Care Gap",
      "firstTimeSentToHostPlanDate": "01/15/2020",
      "age": 35,
      "showAlert": false
    },
    {
      "status": "Complete",
      "providerEngagementRequestIdentifier": "380MR2017784877311",
      "providerName": "Young, Andre R.",
      "capabilityIndicatorDescription": "Medical Record Retrieval",
      "firstTimeSentToHostPlanDate": "01/15/2020",
      "age": 36,
      "showAlert": false
    },
    {
      "status": "Complete",
      "providerEngagementRequestIdentifier": "380MR2015481568945",
      "providerName": "House, Gregory P.",
      "capabilityIndicatorDescription": "Stars Care Gap",
      "firstTimeSentToHostPlanDate": "01/15/2020",
      "age": 37,
      "showAlert": false
    },
    {
      "status": "Complete",
      "providerEngagementRequestIdentifier": "380MR2018898851207",
      "providerName": "Pierce, Benjamin F.",
      "capabilityIndicatorDescription": "Risk Adjustment Gap",
      "firstTimeSentToHostPlanDate": "01/01/2020",
      "age": 38,
      "showAlert": false
    },
    {
      "status": "Pending",
      "providerEngagementRequestIdentifier": "380MR2015565620011",
      "providerName": "Reid, Elliot S.",
      "capabilityIndicatorDescription": "Medical Record Retrieval",
      "firstTimeSentToHostPlanDate": "01/01/2020",
      "age": 39,
      "showAlert": true
    },
    {
      "status": "Complete",
      "providerEngagementRequestIdentifier": "380MR2015644518258",
      "providerName": "Quinn, Michaela A.",
      "capabilityIndicatorDescription": "Risk Adjustment Gap",
      "firstTimeSentToHostPlanDate": "01/01/2020",
      "age": 40,
      "showAlert": false
    },
    {
      "status": "NEW",
      "providerEngagementRequestIdentifier": "380MR2019061921001",
      "providerName": "Murphy, Shaun L.",
      "capabilityIndicatorDescription": "Stars Care Gap",
      "firstTimeSentToHostPlanDate": "02/23/2020",
      "age": 41,
      "showAlert": false
    },
    {
      "status": "Pending",
      "providerEngagementRequestIdentifier": "380MR2015481568945",
      "providerName": "McCoy, Leonard E.",
      "capabilityIndicatorDescription": "Risk Adjustment Gap",
      "firstTimeSentToHostPlanDate": "01/24/2020",
      "age": 42,
      "showAlert": false
    },
    {
      "status": "Pending",
      "providerEngagementRequestIdentifier": "380MR2018874519598",
      "providerName": "Pepper, Charles D.",
      "capabilityIndicatorDescription": "Medical Record Retrieval",
      "firstTimeSentToHostPlanDate": "01/24/2020",
      "age": 43,
      "showAlert": false
    },
    {
      "status": "Engaged",
      "providerEngagementRequestIdentifier": "380MR2016645815689",
      "providerName": "Dorian, John M.",
      "capabilityIndicatorDescription": "Stars Care Gap",
      "firstTimeSentToHostPlanDate": "01/24/2020",
      "age": 44,
      "showAlert": false
    },
    {
      "status": "Error",
      "providerEngagementRequestIdentifier": "380MR2018851515599",
      "providerName": "Howser, Douglas B.",
      "capabilityIndicatorDescription": "Stars Care Gap",
      "firstTimeSentToHostPlanDate": "01/15/2020",
      "age": 45,
      "showAlert": false
    },
    {
      "status": "Complete",
      "providerEngagementRequestIdentifier": "380MR2017784877311",
      "providerName": "Young, Andre R.",
      "capabilityIndicatorDescription": "Medical Record Retrieval",
      "firstTimeSentToHostPlanDate": "01/15/2020",
      "age": 46,
      "showAlert": false
    },
    {
      "status": "Complete",
      "providerEngagementRequestIdentifier": "380MR2015481568945",
      "providerName": "House, Gregory P.",
      "capabilityIndicatorDescription": "Stars Care Gap",
      "firstTimeSentToHostPlanDate": "01/15/2020",
      "age": 47,
      "showAlert": false
    },
    {
      "status": "Complete",
      "providerEngagementRequestIdentifier": "380MR2018898851207",
      "providerName": "Pierce, Benjamin F.",
      "capabilityIndicatorDescription": "Risk Adjustment Gap",
      "firstTimeSentToHostPlanDate": "01/01/2020",
      "age": 48,
      "showAlert": false
    },
    {
      "status": "Pending",
      "providerEngagementRequestIdentifier": "380MR2015565620011",
      "providerName": "Reid, Elliot S.",
      "capabilityIndicatorDescription": "Medical Record Retrieval",
      "firstTimeSentToHostPlanDate": "01/01/2020",
      "age": 49,
      "showAlert": true
    },
    {
      "status": "Complete",
      "providerEngagementRequestIdentifier": "380MR2015644518258",
      "providerName": "Quinn, Michaela A.",
      "capabilityIndicatorDescription": "Risk Adjustment Gap",
      "firstTimeSentToHostPlanDate": "01/01/2020",
      "age": 50,
      "showAlert": false
    },
    {
      "status": "NEW",
      "providerEngagementRequestIdentifier": "380MR2019061921001",
      "providerName": "Murphy, Shaun L.",
      "capabilityIndicatorDescription": "Stars Care Gap",
      "firstTimeSentToHostPlanDate": "02/23/2020",
      "age": 51,
      "showAlert": false
    },
    {
      "status": "Pending",
      "providerEngagementRequestIdentifier": "380MR2015481568945",
      "providerName": "McCoy, Leonard E.",
      "capabilityIndicatorDescription": "Risk Adjustment Gap",
      "firstTimeSentToHostPlanDate": "01/24/2020",
      "age": 52,
      "showAlert": false
    },
    {
      "status": "Pending",
      "providerEngagementRequestIdentifier": "380MR2018874519598",
      "providerName": "Pepper, Charles D.",
      "capabilityIndicatorDescription": "Medical Record Retrieval",
      "firstTimeSentToHostPlanDate": "01/24/2020",
      "age": 53,
      "showAlert": false
    },
    {
      "status": "Engaged",
      "providerEngagementRequestIdentifier": "380MR2016645815689",
      "providerName": "Dorian, John M.",
      "capabilityIndicatorDescription": "Stars Care Gap",
      "firstTimeSentToHostPlanDate": "01/24/2020",
      "age": 54,
      "showAlert": false
    },
    {
      "status": "Error",
      "providerEngagementRequestIdentifier": "380MR2018851515599",
      "providerName": "Howser, Douglas B.",
      "capabilityIndicatorDescription": "Stars Care Gap",
      "firstTimeSentToHostPlanDate": "01/15/2020",
      "age": 55,
      "showAlert": false
    },
    {
      "status": "Complete",
      "providerEngagementRequestIdentifier": "380MR2017784877311",
      "providerName": "Young, Andre R.",
      "capabilityIndicatorDescription": "Medical Record Retrieval",
      "firstTimeSentToHostPlanDate": "01/15/2020",
      "age": 56,
      "showAlert": false
    },
    {
      "status": "Complete",
      "providerEngagementRequestIdentifier": "380MR2015481568945",
      "providerName": "House, Gregory P.",
      "capabilityIndicatorDescription": "Stars Care Gap",
      "firstTimeSentToHostPlanDate": "01/15/2020",
      "age": 57,
      "showAlert": false
    },
    {
      "status": "Complete",
      "providerEngagementRequestIdentifier": "380MR2018898851207",
      "providerName": "Pierce, Benjamin F.",
      "capabilityIndicatorDescription": "Risk Adjustment Gap",
      "firstTimeSentToHostPlanDate": "01/01/2020",
      "age": 58,
      "showAlert": false
    },
    {
      "status": "Pending",
      "providerEngagementRequestIdentifier": "380MR2015565620011",
      "providerName": "Reid, Elliot S.",
      "capabilityIndicatorDescription": "Medical Record Retrieval",
      "firstTimeSentToHostPlanDate": "01/01/2020",
      "age": 59,
      "showAlert": true
    },
    {
      "status": "Complete",
      "providerEngagementRequestIdentifier": "380MR2015644518258",
      "providerName": "Quinn, Michaela A.",
      "capabilityIndicatorDescription": "Risk Adjustment Gap",
      "firstTimeSentToHostPlanDate": "01/01/2020",
      "age": 60,
      "showAlert": false
    },
    {
      "status": "NEW",
      "providerEngagementRequestIdentifier": "380MR2019061921001",
      "providerName": "Murphy, Shaun L.",
      "capabilityIndicatorDescription": "Stars Care Gap",
      "firstTimeSentToHostPlanDate": "02/23/2020",
      "age": 61,
      "showAlert": false
    },
    {
      "status": "Pending",
      "providerEngagementRequestIdentifier": "380MR2015481568945",
      "providerName": "McCoy, Leonard E.",
      "capabilityIndicatorDescription": "Risk Adjustment Gap",
      "firstTimeSentToHostPlanDate": "01/24/2020",
      "age": 62,
      "showAlert": false
    },
    {
      "status": "Pending",
      "providerEngagementRequestIdentifier": "380MR2018874519598",
      "providerName": "Pepper, Charles D.",
      "capabilityIndicatorDescription": "Medical Record Retrieval",
      "firstTimeSentToHostPlanDate": "01/24/2020",
      "age": 63,
      "showAlert": false
    },
    {
      "status": "Engaged",
      "providerEngagementRequestIdentifier": "380MR2016645815689",
      "providerName": "Dorian, John M.",
      "capabilityIndicatorDescription": "Stars Care Gap",
      "firstTimeSentToHostPlanDate": "01/24/2020",
      "age": 64,
      "showAlert": false
    },
    {
      "status": "Error",
      "providerEngagementRequestIdentifier": "380MR2018851515599",
      "providerName": "Howser, Douglas B.",
      "capabilityIndicatorDescription": "Stars Care Gap",
      "firstTimeSentToHostPlanDate": "01/15/2020",
      "age": 65,
      "showAlert": false
    },
    {
      "status": "Complete",
      "providerEngagementRequestIdentifier": "380MR2017784877311",
      "providerName": "Young, Andre R.",
      "capabilityIndicatorDescription": "Medical Record Retrieval",
      "firstTimeSentToHostPlanDate": "01/15/2020",
      "age": 66,
      "showAlert": false
    },
    {
      "status": "Complete",
      "providerEngagementRequestIdentifier": "380MR2015481568945",
      "providerName": "House, Gregory P.",
      "capabilityIndicatorDescription": "Stars Care Gap",
      "firstTimeSentToHostPlanDate": "01/15/2020",
      "age": 67,
      "showAlert": false
    },
    {
      "status": "Complete",
      "providerEngagementRequestIdentifier": "380MR2018898851207",
      "providerName": "Pierce, Benjamin F.",
      "capabilityIndicatorDescription": "Risk Adjustment Gap",
      "firstTimeSentToHostPlanDate": "01/01/2020",
      "age": 68,
      "showAlert": false
    },
    {
      "status": "Pending",
      "providerEngagementRequestIdentifier": "380MR2015565620011",
      "providerName": "Reid, Elliot S.",
      "capabilityIndicatorDescription": "Medical Record Retrieval",
      "firstTimeSentToHostPlanDate": "01/01/2020",
      "age": 69,
      "showAlert": true
    },
    {
      "status": "Complete",
      "providerEngagementRequestIdentifier": "380MR2015644518258",
      "providerName": "Quinn, Michaela A.",
      "capabilityIndicatorDescription": "Risk Adjustment Gap",
      "firstTimeSentToHostPlanDate": "01/01/2020",
      "age": 70,
      "showAlert": false
    },
    {
      "status": "NEW",
      "providerEngagementRequestIdentifier": "380MR2019061921001",
      "providerName": "Murphy, Shaun L.",
      "capabilityIndicatorDescription": "Stars Care Gap",
      "firstTimeSentToHostPlanDate": "02/23/2020",
      "age": 71,
      "showAlert": false
    },
    {
      "status": "Pending",
      "providerEngagementRequestIdentifier": "380MR2015481568945",
      "providerName": "McCoy, Leonard E.",
      "capabilityIndicatorDescription": "Risk Adjustment Gap",
      "firstTimeSentToHostPlanDate": "01/24/2020",
      "age": 72,
      "showAlert": false
    },
    {
      "status": "Pending",
      "providerEngagementRequestIdentifier": "380MR2018874519598",
      "providerName": "Pepper, Charles D.",
      "capabilityIndicatorDescription": "Medical Record Retrieval",
      "firstTimeSentToHostPlanDate": "01/24/2020",
      "age": 73,
      "showAlert": false
    },
    {
      "status": "Engaged",
      "providerEngagementRequestIdentifier": "380MR2016645815689",
      "providerName": "Dorian, John M.",
      "capabilityIndicatorDescription": "Stars Care Gap",
      "firstTimeSentToHostPlanDate": "01/24/2020",
      "age": 74,
      "showAlert": false
    },
    {
      "status": "Error",
      "providerEngagementRequestIdentifier": "380MR2018851515599",
      "providerName": "Howser, Douglas B.",
      "capabilityIndicatorDescription": "Stars Care Gap",
      "firstTimeSentToHostPlanDate": "01/15/2020",
      "age": 75,
      "showAlert": false
    },
    {
      "status": "Complete",
      "providerEngagementRequestIdentifier": "380MR2017784877311",
      "providerName": "Young, Andre R.",
      "capabilityIndicatorDescription": "Medical Record Retrieval",
      "firstTimeSentToHostPlanDate": "01/15/2020",
      "age": 76,
      "showAlert": false
    },
    {
      "status": "Complete",
      "providerEngagementRequestIdentifier": "380MR2015481568945",
      "providerName": "House, Gregory P.",
      "capabilityIndicatorDescription": "Stars Care Gap",
      "firstTimeSentToHostPlanDate": "01/15/2020",
      "age": 77,
      "showAlert": false
    },
    {
      "status": "Complete",
      "providerEngagementRequestIdentifier": "380MR2018898851207",
      "providerName": "Pierce, Benjamin F.",
      "capabilityIndicatorDescription": "Risk Adjustment Gap",
      "firstTimeSentToHostPlanDate": "01/01/2020",
      "age": 78,
      "showAlert": false
    },
    {
      "status": "Pending",
      "providerEngagementRequestIdentifier": "380MR2015565620011",
      "providerName": "Reid, Elliot S.",
      "capabilityIndicatorDescription": "Medical Record Retrieval",
      "firstTimeSentToHostPlanDate": "01/01/2020",
      "age": 79,
      "showAlert": true
    },
    {
      "status": "Complete",
      "providerEngagementRequestIdentifier": "380MR2015644518258",
      "providerName": "Quinn, Michaela A.",
      "capabilityIndicatorDescription": "Risk Adjustment Gap",
      "firstTimeSentToHostPlanDate": "01/01/2020",
      "age": 80,
      "showAlert": false
    },
    {
      "status": "NEW",
      "providerEngagementRequestIdentifier": "380MR2019061921001",
      "providerName": "Murphy, Shaun L.",
      "capabilityIndicatorDescription": "Stars Care Gap",
      "firstTimeSentToHostPlanDate": "02/23/2020",
      "age": 81,
      "showAlert": false
    },
    {
      "status": "Pending",
      "providerEngagementRequestIdentifier": "380MR2015481568945",
      "providerName": "McCoy, Leonard E.",
      "capabilityIndicatorDescription": "Risk Adjustment Gap",
      "firstTimeSentToHostPlanDate": "01/24/2020",
      "age": 82,
      "showAlert": false
    },
    {
      "status": "Pending",
      "providerEngagementRequestIdentifier": "380MR2018874519598",
      "providerName": "Pepper, Charles D.",
      "capabilityIndicatorDescription": "Medical Record Retrieval",
      "firstTimeSentToHostPlanDate": "01/24/2020",
      "age": 83,
      "showAlert": false
    },
    {
      "status": "Engaged",
      "providerEngagementRequestIdentifier": "380MR2016645815689",
      "providerName": "Dorian, John M.",
      "capabilityIndicatorDescription": "Stars Care Gap",
      "firstTimeSentToHostPlanDate": "01/24/2020",
      "age": 84,
      "showAlert": false
    },
    {
      "status": "Error",
      "providerEngagementRequestIdentifier": "380MR2018851515599",
      "providerName": "Howser, Douglas B.",
      "capabilityIndicatorDescription": "Stars Care Gap",
      "firstTimeSentToHostPlanDate": "01/15/2020",
      "age": 85,
      "showAlert": false
    },
    {
      "status": "Complete",
      "providerEngagementRequestIdentifier": "380MR2017784877311",
      "providerName": "Young, Andre R.",
      "capabilityIndicatorDescription": "Medical Record Retrieval",
      "firstTimeSentToHostPlanDate": "01/15/2020",
      "age": 86,
      "showAlert": false
    },
    {
      "status": "Complete",
      "providerEngagementRequestIdentifier": "380MR2015481568945",
      "providerName": "House, Gregory P.",
      "capabilityIndicatorDescription": "Stars Care Gap",
      "firstTimeSentToHostPlanDate": "01/15/2020",
      "age": 87,
      "showAlert": false
    },
    {
      "status": "Complete",
      "providerEngagementRequestIdentifier": "380MR2018898851207",
      "providerName": "Pierce, Benjamin F.",
      "capabilityIndicatorDescription": "Risk Adjustment Gap",
      "firstTimeSentToHostPlanDate": "01/01/2020",
      "age": 88,
      "showAlert": false
    },
    {
      "status": "Pending",
      "providerEngagementRequestIdentifier": "380MR2015565620011",
      "providerName": "Reid, Elliot S.",
      "capabilityIndicatorDescription": "Medical Record Retrieval",
      "firstTimeSentToHostPlanDate": "01/01/2020",
      "age": 89,
      "showAlert": true
    },
    {
      "status": "Complete",
      "providerEngagementRequestIdentifier": "380MR2015644518258",
      "providerName": "Quinn, Michaela A.",
      "capabilityIndicatorDescription": "Risk Adjustment Gap",
      "firstTimeSentToHostPlanDate": "01/01/2020",
      "age": 90,
      "showAlert": false
    },
    {
      "status": "NEW",
      "providerEngagementRequestIdentifier": "380MR2019061921001",
      "providerName": "Murphy, Shaun L.",
      "capabilityIndicatorDescription": "Stars Care Gap",
      "firstTimeSentToHostPlanDate": "02/23/2020",
      "age": 91,
      "showAlert": false
    },
    {
      "status": "Pending",
      "providerEngagementRequestIdentifier": "380MR2015481568945",
      "providerName": "McCoy, Leonard E.",
      "capabilityIndicatorDescription": "Risk Adjustment Gap",
      "firstTimeSentToHostPlanDate": "01/24/2020",
      "age": 92,
      "showAlert": false
    },
    {
      "status": "Pending",
      "providerEngagementRequestIdentifier": "380MR2018874519598",
      "providerName": "Pepper, Charles D.",
      "capabilityIndicatorDescription": "Medical Record Retrieval",
      "firstTimeSentToHostPlanDate": "01/24/2020",
      "age": 93,
      "showAlert": false
    },
    {
      "status": "Engaged",
      "providerEngagementRequestIdentifier": "380MR2016645815689",
      "providerName": "Dorian, John M.",
      "capabilityIndicatorDescription": "Stars Care Gap",
      "firstTimeSentToHostPlanDate": "01/24/2020",
      "age": 94,
      "showAlert": false
    },
    {
      "status": "Error",
      "providerEngagementRequestIdentifier": "380MR2018851515599",
      "providerName": "Howser, Douglas B.",
      "capabilityIndicatorDescription": "Stars Care Gap",
      "firstTimeSentToHostPlanDate": "01/15/2020",
      "age": 95,
      "showAlert": false
    },
    {
      "status": "Complete",
      "providerEngagementRequestIdentifier": "380MR2017784877311",
      "providerName": "Young, Andre R.",
      "capabilityIndicatorDescription": "Medical Record Retrieval",
      "firstTimeSentToHostPlanDate": "01/15/2020",
      "age": 96,
      "showAlert": false
    },
    {
      "status": "Complete",
      "providerEngagementRequestIdentifier": "380MR2015481568945",
      "providerName": "House, Gregory P.",
      "capabilityIndicatorDescription": "Stars Care Gap",
      "firstTimeSentToHostPlanDate": "01/15/2020",
      "age": 97,
      "showAlert": false
    },
    {
      "status": "Complete",
      "providerEngagementRequestIdentifier": "380MR2018898851207",
      "providerName": "Pierce, Benjamin F.",
      "capabilityIndicatorDescription": "Risk Adjustment Gap",
      "firstTimeSentToHostPlanDate": "01/01/2020",
      "age": 98,
      "showAlert": false
    },
    {
      "status": "Pending",
      "providerEngagementRequestIdentifier": "380MR2015565620011",
      "providerName": "Reid, Elliot S.",
      "capabilityIndicatorDescription": "Medical Record Retrieval",
      "firstTimeSentToHostPlanDate": "01/01/2020",
      "age": 99,
      "showAlert": true
    },
    {
      "status": "Complete",
      "providerEngagementRequestIdentifier": "380MR2015644518258",
      "providerName": "Quinn, Michaela A.",
      "capabilityIndicatorDescription": "Risk Adjustment Gap",
      "firstTimeSentToHostPlanDate": "01/01/2020",
      "age": 100,
      "showAlert": false
    },
    {
      "status": "NEW",
      "providerEngagementRequestIdentifier": "380MR2019061921001",
      "providerName": "Murphy, Shaun L.",
      "capabilityIndicatorDescription": "Stars Care Gap",
      "firstTimeSentToHostPlanDate": "02/23/2020",
      "age": 101,
      "showAlert": false
    },
    {
      "status": "Pending",
      "providerEngagementRequestIdentifier": "380MR2015481568945",
      "providerName": "McCoy, Leonard E.",
      "capabilityIndicatorDescription": "Risk Adjustment Gap",
      "firstTimeSentToHostPlanDate": "01/24/2020",
      "age": 102,
      "showAlert": false
    },
    {
      "status": "Pending",
      "providerEngagementRequestIdentifier": "380MR2018874519598",
      "providerName": "Pepper, Charles D.",
      "capabilityIndicatorDescription": "Medical Record Retrieval",
      "firstTimeSentToHostPlanDate": "01/24/2020",
      "age": 103,
      "showAlert": false
    },
    {
      "status": "Engaged",
      "providerEngagementRequestIdentifier": "380MR2016645815689",
      "providerName": "Dorian, John M.",
      "capabilityIndicatorDescription": "Stars Care Gap",
      "firstTimeSentToHostPlanDate": "01/24/2020",
      "age": 104,
      "showAlert": false
    },
    {
      "status": "Error",
      "providerEngagementRequestIdentifier": "380MR2018851515599",
      "providerName": "Howser, Douglas B.",
      "capabilityIndicatorDescription": "Stars Care Gap",
      "firstTimeSentToHostPlanDate": "01/15/2020",
      "age": 105,
      "showAlert": false
    },
    {
      "status": "Complete",
      "providerEngagementRequestIdentifier": "380MR2017784877311",
      "providerName": "Young, Andre R.",
      "capabilityIndicatorDescription": "Medical Record Retrieval",
      "firstTimeSentToHostPlanDate": "01/15/2020",
      "age": 106,
      "showAlert": false
    },
    {
      "status": "Complete",
      "providerEngagementRequestIdentifier": "380MR2015481568945",
      "providerName": "House, Gregory P.",
      "capabilityIndicatorDescription": "Stars Care Gap",
      "firstTimeSentToHostPlanDate": "01/15/2020",
      "age": 107,
      "showAlert": false
    },
    {
      "status": "Complete",
      "providerEngagementRequestIdentifier": "380MR2018898851207",
      "providerName": "Pierce, Benjamin F.",
      "capabilityIndicatorDescription": "Risk Adjustment Gap",
      "firstTimeSentToHostPlanDate": "01/01/2020",
      "age": 108,
      "showAlert": false
    },
    {
      "status": "Pending",
      "providerEngagementRequestIdentifier": "380MR2015565620011",
      "providerName": "Reid, Elliot S.",
      "capabilityIndicatorDescription": "Medical Record Retrieval",
      "firstTimeSentToHostPlanDate": "01/01/2020",
      "age": 109,
      "showAlert": true
    },
    {
      "status": "Complete",
      "providerEngagementRequestIdentifier": "380MR2015644518258",
      "providerName": "Quinn, Michaela A.",
      "capabilityIndicatorDescription": "Risk Adjustment Gap",
      "firstTimeSentToHostPlanDate": "01/01/2020",
      "age": 110,
      "showAlert": false
    },
    {
      "status": "NEW",
      "providerEngagementRequestIdentifier": "380MR2019061921001",
      "providerName": "Murphy, Shaun L.",
      "capabilityIndicatorDescription": "Stars Care Gap",
      "firstTimeSentToHostPlanDate": "02/23/2020",
      "age": 111,
      "showAlert": false
    },
    {
      "status": "Pending",
      "providerEngagementRequestIdentifier": "380MR2015481568945",
      "providerName": "McCoy, Leonard E.",
      "capabilityIndicatorDescription": "Risk Adjustment Gap",
      "firstTimeSentToHostPlanDate": "01/24/2020",
      "age": 112,
      "showAlert": false
    },
    {
      "status": "Pending",
      "providerEngagementRequestIdentifier": "380MR2018874519598",
      "providerName": "Pepper, Charles D.",
      "capabilityIndicatorDescription": "Medical Record Retrieval",
      "firstTimeSentToHostPlanDate": "01/24/2020",
      "age": 113,
      "showAlert": false
    },
    {
      "status": "Engaged",
      "providerEngagementRequestIdentifier": "380MR2016645815689",
      "providerName": "Dorian, John M.",
      "capabilityIndicatorDescription": "Stars Care Gap",
      "firstTimeSentToHostPlanDate": "01/24/2020",
      "age": 114,
      "showAlert": false
    },
    {
      "status": "Error",
      "providerEngagementRequestIdentifier": "380MR2018851515599",
      "providerName": "Howser, Douglas B.",
      "capabilityIndicatorDescription": "Stars Care Gap",
      "firstTimeSentToHostPlanDate": "01/15/2020",
      "age": 115,
      "showAlert": false
    },
    {
      "status": "Complete",
      "providerEngagementRequestIdentifier": "380MR2017784877311",
      "providerName": "Young, Andre R.",
      "capabilityIndicatorDescription": "Medical Record Retrieval",
      "firstTimeSentToHostPlanDate": "01/15/2020",
      "age": 116,
      "showAlert": false
    },
    {
      "status": "Complete",
      "providerEngagementRequestIdentifier": "380MR2015481568945",
      "providerName": "House, Gregory P.",
      "capabilityIndicatorDescription": "Stars Care Gap",
      "firstTimeSentToHostPlanDate": "01/15/2020",
      "age": 117,
      "showAlert": false
    },
    {
      "status": "Complete",
      "providerEngagementRequestIdentifier": "380MR2018898851207",
      "providerName": "Pierce, Benjamin F.",
      "capabilityIndicatorDescription": "Risk Adjustment Gap",
      "firstTimeSentToHostPlanDate": "01/01/2020",
      "age": 118,
      "showAlert": false
    },
    {
      "status": "Pending",
      "providerEngagementRequestIdentifier": "380MR2015565620011",
      "providerName": "Reid, Elliot S.",
      "capabilityIndicatorDescription": "Medical Record Retrieval",
      "firstTimeSentToHostPlanDate": "01/01/2020",
      "age": 119,
      "showAlert": true
    },
    {
      "status": "Complete",
      "providerEngagementRequestIdentifier": "380MR2015644518258",
      "providerName": "Quinn, Michaela A.",
      "capabilityIndicatorDescription": "Risk Adjustment Gap",
      "firstTimeSentToHostPlanDate": "01/01/2020",
      "age": 120,
      "showAlert": false
    },
    {
      "status": "NEW",
      "providerEngagementRequestIdentifier": "380MR2019061921001",
      "providerName": "Murphy, Shaun L.",
      "capabilityIndicatorDescription": "Stars Care Gap",
      "firstTimeSentToHostPlanDate": "02/23/2020",
      "age": 121,
      "showAlert": false
    },
    {
      "status": "Pending",
      "providerEngagementRequestIdentifier": "380MR2015481568945",
      "providerName": "McCoy, Leonard E.",
      "capabilityIndicatorDescription": "Risk Adjustment Gap",
      "firstTimeSentToHostPlanDate": "01/24/2020",
      "age": 122,
      "showAlert": false
    },
    {
      "status": "Pending",
      "providerEngagementRequestIdentifier": "380MR2018874519598",
      "providerName": "Pepper, Charles D.",
      "capabilityIndicatorDescription": "Medical Record Retrieval",
      "firstTimeSentToHostPlanDate": "01/24/2020",
      "age": 123,
      "showAlert": false
    },
    {
      "status": "Engaged",
      "providerEngagementRequestIdentifier": "380MR2016645815689",
      "providerName": "Dorian, John M.",
      "capabilityIndicatorDescription": "Stars Care Gap",
      "firstTimeSentToHostPlanDate": "01/24/2020",
      "age": 124,
      "showAlert": false
    },
    {
      "status": "Error",
      "providerEngagementRequestIdentifier": "380MR2018851515599",
      "providerName": "Howser, Douglas B.",
      "capabilityIndicatorDescription": "Stars Care Gap",
      "firstTimeSentToHostPlanDate": "01/15/2020",
      "age": 125,
      "showAlert": false
    },
    {
      "status": "Complete",
      "providerEngagementRequestIdentifier": "380MR2017784877311",
      "providerName": "Young, Andre R.",
      "capabilityIndicatorDescription": "Medical Record Retrieval",
      "firstTimeSentToHostPlanDate": "01/15/2020",
      "age": 126,
      "showAlert": false
    },
    {
      "status": "Complete",
      "providerEngagementRequestIdentifier": "380MR2015481568945",
      "providerName": "House, Gregory P.",
      "capabilityIndicatorDescription": "Stars Care Gap",
      "firstTimeSentToHostPlanDate": "01/15/2020",
      "age": 127,
      "showAlert": false
    },
    {
      "status": "Complete",
      "providerEngagementRequestIdentifier": "380MR2018898851207",
      "providerName": "Pierce, Benjamin F.",
      "capabilityIndicatorDescription": "Risk Adjustment Gap",
      "firstTimeSentToHostPlanDate": "01/01/2020",
      "age": 128,
      "showAlert": false
    },
    {
      "status": "Pending",
      "providerEngagementRequestIdentifier": "380MR2015565620011",
      "providerName": "Reid, Elliot S.",
      "capabilityIndicatorDescription": "Medical Record Retrieval",
      "firstTimeSentToHostPlanDate": "01/01/2020",
      "age": 129,
      "showAlert": true
    },
    {
      "status": "Complete",
      "providerEngagementRequestIdentifier": "380MR2015644518258",
      "providerName": "Quinn, Michaela A.",
      "capabilityIndicatorDescription": "Risk Adjustment Gap",
      "firstTimeSentToHostPlanDate": "01/01/2020",
      "age": 130,
      "showAlert": false
    },
    {
      "status": "NEW",
      "providerEngagementRequestIdentifier": "380MR2019061921001",
      "providerName": "Murphy, Shaun L.",
      "capabilityIndicatorDescription": "Stars Care Gap",
      "firstTimeSentToHostPlanDate": "02/23/2020",
      "age": 131,
      "showAlert": false
    },
    {
      "status": "Pending",
      "providerEngagementRequestIdentifier": "380MR2015481568945",
      "providerName": "McCoy, Leonard E.",
      "capabilityIndicatorDescription": "Risk Adjustment Gap",
      "firstTimeSentToHostPlanDate": "01/24/2020",
      "age": 132,
      "showAlert": false
    },
    {
      "status": "Pending",
      "providerEngagementRequestIdentifier": "380MR2018874519598",
      "providerName": "Pepper, Charles D.",
      "capabilityIndicatorDescription": "Medical Record Retrieval",
      "firstTimeSentToHostPlanDate": "01/24/2020",
      "age": 133,
      "showAlert": false
    },
    {
      "status": "Engaged",
      "providerEngagementRequestIdentifier": "380MR2016645815689",
      "providerName": "Dorian, John M.",
      "capabilityIndicatorDescription": "Stars Care Gap",
      "firstTimeSentToHostPlanDate": "01/24/2020",
      "age": 134,
      "showAlert": false
    },
    {
      "status": "Error",
      "providerEngagementRequestIdentifier": "380MR2018851515599",
      "providerName": "Howser, Douglas B.",
      "capabilityIndicatorDescription": "Stars Care Gap",
      "firstTimeSentToHostPlanDate": "01/15/2020",
      "age": 135,
      "showAlert": false
    },
    {
      "status": "Complete",
      "providerEngagementRequestIdentifier": "380MR2017784877311",
      "providerName": "Young, Andre R.",
      "capabilityIndicatorDescription": "Medical Record Retrieval",
      "firstTimeSentToHostPlanDate": "01/15/2020",
      "age": 136,
      "showAlert": false
    },
    {
      "status": "Complete",
      "providerEngagementRequestIdentifier": "380MR2015481568945",
      "providerName": "House, Gregory P.",
      "capabilityIndicatorDescription": "Stars Care Gap",
      "firstTimeSentToHostPlanDate": "01/15/2020",
      "age": 137,
      "showAlert": false
    },
    {
      "status": "Complete",
      "providerEngagementRequestIdentifier": "380MR2018898851207",
      "providerName": "Pierce, Benjamin F.",
      "capabilityIndicatorDescription": "Risk Adjustment Gap",
      "firstTimeSentToHostPlanDate": "01/01/2020",
      "age": 138,
      "showAlert": false
    },
    {
      "status": "Pending",
      "providerEngagementRequestIdentifier": "380MR2015565620011",
      "providerName": "Reid, Elliot S.",
      "capabilityIndicatorDescription": "Medical Record Retrieval",
      "firstTimeSentToHostPlanDate": "01/01/2020",
      "age": 139,
      "showAlert": true
    },
    {
      "status": "Complete",
      "providerEngagementRequestIdentifier": "380MR2015644518258",
      "providerName": "Quinn, Michaela A.",
      "capabilityIndicatorDescription": "Risk Adjustment Gap",
      "firstTimeSentToHostPlanDate": "01/01/2020",
      "age": 140,
      "showAlert": false
    },
    {
      "status": "NEW",
      "providerEngagementRequestIdentifier": "380MR2019061921001",
      "providerName": "Murphy, Shaun L.",
      "capabilityIndicatorDescription": "Stars Care Gap",
      "firstTimeSentToHostPlanDate": "02/23/2020",
      "age": 141,
      "showAlert": false
    },
    {
      "status": "Pending",
      "providerEngagementRequestIdentifier": "380MR2015481568945",
      "providerName": "McCoy, Leonard E.",
      "capabilityIndicatorDescription": "Risk Adjustment Gap",
      "firstTimeSentToHostPlanDate": "01/24/2020",
      "age": 142,
      "showAlert": false
    },
    {
      "status": "Pending",
      "providerEngagementRequestIdentifier": "380MR2018874519598",
      "providerName": "Pepper, Charles D.",
      "capabilityIndicatorDescription": "Medical Record Retrieval",
      "firstTimeSentToHostPlanDate": "01/24/2020",
      "age": 143,
      "showAlert": false
    },
    {
      "status": "Engaged",
      "providerEngagementRequestIdentifier": "380MR2016645815689",
      "providerName": "Dorian, John M.",
      "capabilityIndicatorDescription": "Stars Care Gap",
      "firstTimeSentToHostPlanDate": "01/24/2020",
      "age": 144,
      "showAlert": false
    },
    {
      "status": "Error",
      "providerEngagementRequestIdentifier": "380MR2018851515599",
      "providerName": "Howser, Douglas B.",
      "capabilityIndicatorDescription": "Stars Care Gap",
      "firstTimeSentToHostPlanDate": "01/15/2020",
      "age": 145,
      "showAlert": false
    },
    {
      "status": "Complete",
      "providerEngagementRequestIdentifier": "380MR2017784877311",
      "providerName": "Young, Andre R.",
      "capabilityIndicatorDescription": "Medical Record Retrieval",
      "firstTimeSentToHostPlanDate": "01/15/2020",
      "age": 146,
      "showAlert": false
    },
    {
      "status": "Complete",
      "providerEngagementRequestIdentifier": "380MR2015481568945",
      "providerName": "House, Gregory P.",
      "capabilityIndicatorDescription": "Stars Care Gap",
      "firstTimeSentToHostPlanDate": "01/15/2020",
      "age": 147,
      "showAlert": false
    },
    {
      "status": "Complete",
      "providerEngagementRequestIdentifier": "380MR2018898851207",
      "providerName": "Pierce, Benjamin F.",
      "capabilityIndicatorDescription": "Risk Adjustment Gap",
      "firstTimeSentToHostPlanDate": "01/01/2020",
      "age": 148,
      "showAlert": false
    },
    {
      "status": "Pending",
      "providerEngagementRequestIdentifier": "380MR2015565620011",
      "providerName": "Reid, Elliot S.",
      "capabilityIndicatorDescription": "Medical Record Retrieval",
      "firstTimeSentToHostPlanDate": "01/01/2020",
      "age": 149,
      "showAlert": true
    },
    {
      "status": "Complete",
      "providerEngagementRequestIdentifier": "380MR2015644518258",
      "providerName": "Quinn, Michaela A.",
      "capabilityIndicatorDescription": "Risk Adjustment Gap",
      "firstTimeSentToHostPlanDate": "01/01/2020",
      "age": 150,
      "showAlert": false
    },
    {
      "status": "NEW",
      "providerEngagementRequestIdentifier": "380MR2019061921001",
      "providerName": "Murphy, Shaun L.",
      "capabilityIndicatorDescription": "Stars Care Gap",
      "firstTimeSentToHostPlanDate": "02/23/2020",
      "age": 151,
      "showAlert": false
    },
    {
      "status": "Pending",
      "providerEngagementRequestIdentifier": "380MR2015481568945",
      "providerName": "McCoy, Leonard E.",
      "capabilityIndicatorDescription": "Risk Adjustment Gap",
      "firstTimeSentToHostPlanDate": "01/24/2020",
      "age": 152,
      "showAlert": false
    },
    {
      "status": "Pending",
      "providerEngagementRequestIdentifier": "380MR2018874519598",
      "providerName": "Pepper, Charles D.",
      "capabilityIndicatorDescription": "Medical Record Retrieval",
      "firstTimeSentToHostPlanDate": "01/24/2020",
      "age": 153,
      "showAlert": false
    },
    {
      "status": "Engaged",
      "providerEngagementRequestIdentifier": "380MR2016645815689",
      "providerName": "Dorian, John M.",
      "capabilityIndicatorDescription": "Stars Care Gap",
      "firstTimeSentToHostPlanDate": "01/24/2020",
      "age": 154,
      "showAlert": false
    },
    {
      "status": "Error",
      "providerEngagementRequestIdentifier": "380MR2018851515599",
      "providerName": "Howser, Douglas B.",
      "capabilityIndicatorDescription": "Stars Care Gap",
      "firstTimeSentToHostPlanDate": "01/15/2020",
      "age": 155,
      "showAlert": false
    },
    {
      "status": "Complete",
      "providerEngagementRequestIdentifier": "380MR2017784877311",
      "providerName": "Young, Andre R.",
      "capabilityIndicatorDescription": "Medical Record Retrieval",
      "firstTimeSentToHostPlanDate": "01/15/2020",
      "age": 156,
      "showAlert": false
    },
    {
      "status": "Complete",
      "providerEngagementRequestIdentifier": "380MR2015481568945",
      "providerName": "House, Gregory P.",
      "capabilityIndicatorDescription": "Stars Care Gap",
      "firstTimeSentToHostPlanDate": "01/15/2020",
      "age": 157,
      "showAlert": false
    },
    {
      "status": "Complete",
      "providerEngagementRequestIdentifier": "380MR2018898851207",
      "providerName": "Pierce, Benjamin F.",
      "capabilityIndicatorDescription": "Risk Adjustment Gap",
      "firstTimeSentToHostPlanDate": "01/01/2020",
      "age": 158,
      "showAlert": false
    },
    {
      "status": "Pending",
      "providerEngagementRequestIdentifier": "380MR2015565620011",
      "providerName": "Reid, Elliot S.",
      "capabilityIndicatorDescription": "Medical Record Retrieval",
      "firstTimeSentToHostPlanDate": "01/01/2020",
      "age": 159,
      "showAlert": true
    },
    {
      "status": "Complete",
      "providerEngagementRequestIdentifier": "380MR2015644518258",
      "providerName": "Quinn, Michaela A.",
      "capabilityIndicatorDescription": "Risk Adjustment Gap",
      "firstTimeSentToHostPlanDate": "01/01/2020",
      "age": 160,
      "showAlert": false
    },
    {
      "status": "NEW",
      "providerEngagementRequestIdentifier": "380MR2019061921001",
      "providerName": "Murphy, Shaun L.",
      "capabilityIndicatorDescription": "Stars Care Gap",
      "firstTimeSentToHostPlanDate": "02/23/2020",
      "age": 161,
      "showAlert": false
    },
    {
      "status": "Pending",
      "providerEngagementRequestIdentifier": "380MR2015481568945",
      "providerName": "McCoy, Leonard E.",
      "capabilityIndicatorDescription": "Risk Adjustment Gap",
      "firstTimeSentToHostPlanDate": "01/24/2020",
      "age": 162,
      "showAlert": false
    },
    {
      "status": "Pending",
      "providerEngagementRequestIdentifier": "380MR2018874519598",
      "providerName": "Pepper, Charles D.",
      "capabilityIndicatorDescription": "Medical Record Retrieval",
      "firstTimeSentToHostPlanDate": "01/24/2020",
      "age": 163,
      "showAlert": false
    },
    {
      "status": "Engaged",
      "providerEngagementRequestIdentifier": "380MR2016645815689",
      "providerName": "Dorian, John M.",
      "capabilityIndicatorDescription": "Stars Care Gap",
      "firstTimeSentToHostPlanDate": "01/24/2020",
      "age": 164,
      "showAlert": false
    },
    {
      "status": "Error",
      "providerEngagementRequestIdentifier": "380MR2018851515599",
      "providerName": "Howser, Douglas B.",
      "capabilityIndicatorDescription": "Stars Care Gap",
      "firstTimeSentToHostPlanDate": "01/15/2020",
      "age": 165,
      "showAlert": false
    },
    {
      "status": "Complete",
      "providerEngagementRequestIdentifier": "380MR2017784877311",
      "providerName": "Young, Andre R.",
      "capabilityIndicatorDescription": "Medical Record Retrieval",
      "firstTimeSentToHostPlanDate": "01/15/2020",
      "age": 166,
      "showAlert": false
    },
    {
      "status": "Complete",
      "providerEngagementRequestIdentifier": "380MR2015481568945",
      "providerName": "House, Gregory P.",
      "capabilityIndicatorDescription": "Stars Care Gap",
      "firstTimeSentToHostPlanDate": "01/15/2020",
      "age": 167,
      "showAlert": false
    },
    {
      "status": "Complete",
      "providerEngagementRequestIdentifier": "380MR2018898851207",
      "providerName": "Pierce, Benjamin F.",
      "capabilityIndicatorDescription": "Risk Adjustment Gap",
      "firstTimeSentToHostPlanDate": "01/01/2020",
      "age": 168,
      "showAlert": false
    },
    {
      "status": "Pending",
      "providerEngagementRequestIdentifier": "380MR2015565620011",
      "providerName": "Reid, Elliot S.",
      "capabilityIndicatorDescription": "Medical Record Retrieval",
      "firstTimeSentToHostPlanDate": "01/01/2020",
      "age": 169,
      "showAlert": true
    },
    {
      "status": "Complete",
      "providerEngagementRequestIdentifier": "380MR2015644518258",
      "providerName": "Quinn, Michaela A.",
      "capabilityIndicatorDescription": "Risk Adjustment Gap",
      "firstTimeSentToHostPlanDate": "01/01/2020",
      "age": 170,
      "showAlert": false
    },
    {
      "status": "NEW",
      "providerEngagementRequestIdentifier": "380MR2019061921001",
      "providerName": "Murphy, Shaun L.",
      "capabilityIndicatorDescription": "Stars Care Gap",
      "firstTimeSentToHostPlanDate": "02/23/2020",
      "age": 171,
      "showAlert": false
    },
    {
      "status": "Pending",
      "providerEngagementRequestIdentifier": "380MR2015481568945",
      "providerName": "McCoy, Leonard E.",
      "capabilityIndicatorDescription": "Risk Adjustment Gap",
      "firstTimeSentToHostPlanDate": "01/24/2020",
      "age": 172,
      "showAlert": false
    },
    {
      "status": "Pending",
      "providerEngagementRequestIdentifier": "380MR2018874519598",
      "providerName": "Pepper, Charles D.",
      "capabilityIndicatorDescription": "Medical Record Retrieval",
      "firstTimeSentToHostPlanDate": "01/24/2020",
      "age": 173,
      "showAlert": false
    },
    {
      "status": "Engaged",
      "providerEngagementRequestIdentifier": "380MR2016645815689",
      "providerName": "Dorian, John M.",
      "capabilityIndicatorDescription": "Stars Care Gap",
      "firstTimeSentToHostPlanDate": "01/24/2020",
      "age": 174,
      "showAlert": false
    },
    {
      "status": "Error",
      "providerEngagementRequestIdentifier": "380MR2018851515599",
      "providerName": "Howser, Douglas B.",
      "capabilityIndicatorDescription": "Stars Care Gap",
      "firstTimeSentToHostPlanDate": "01/15/2020",
      "age": 175,
      "showAlert": false
    },
    {
      "status": "Complete",
      "providerEngagementRequestIdentifier": "380MR2017784877311",
      "providerName": "Young, Andre R.",
      "capabilityIndicatorDescription": "Medical Record Retrieval",
      "firstTimeSentToHostPlanDate": "01/15/2020",
      "age": 176,
      "showAlert": false
    },
    {
      "status": "Complete",
      "providerEngagementRequestIdentifier": "380MR2015481568945",
      "providerName": "House, Gregory P.",
      "capabilityIndicatorDescription": "Stars Care Gap",
      "firstTimeSentToHostPlanDate": "01/15/2020",
      "age": 177,
      "showAlert": false
    },
    {
      "status": "Complete",
      "providerEngagementRequestIdentifier": "380MR2018898851207",
      "providerName": "Pierce, Benjamin F.",
      "capabilityIndicatorDescription": "Risk Adjustment Gap",
      "firstTimeSentToHostPlanDate": "01/01/2020",
      "age": 178,
      "showAlert": false
    },
    {
      "status": "Pending",
      "providerEngagementRequestIdentifier": "380MR2015565620011",
      "providerName": "Reid, Elliot S.",
      "capabilityIndicatorDescription": "Medical Record Retrieval",
      "firstTimeSentToHostPlanDate": "01/01/2020",
      "age": 179,
      "showAlert": true
    },
    {
      "status": "Complete",
      "providerEngagementRequestIdentifier": "380MR2015644518258",
      "providerName": "Quinn, Michaela A.",
      "capabilityIndicatorDescription": "Risk Adjustment Gap",
      "firstTimeSentToHostPlanDate": "01/01/2020",
      "age": 180,
      "showAlert": false
    },
    {
      "status": "NEW",
      "providerEngagementRequestIdentifier": "380MR2019061921001",
      "providerName": "Murphy, Shaun L.",
      "capabilityIndicatorDescription": "Stars Care Gap",
      "firstTimeSentToHostPlanDate": "02/23/2020",
      "age": 181,
      "showAlert": false
    },
    {
      "status": "Pending",
      "providerEngagementRequestIdentifier": "380MR2015481568945",
      "providerName": "McCoy, Leonard E.",
      "capabilityIndicatorDescription": "Risk Adjustment Gap",
      "firstTimeSentToHostPlanDate": "01/24/2020",
      "age": 182,
      "showAlert": false
    },
    {
      "status": "Pending",
      "providerEngagementRequestIdentifier": "380MR2018874519598",
      "providerName": "Pepper, Charles D.",
      "capabilityIndicatorDescription": "Medical Record Retrieval",
      "firstTimeSentToHostPlanDate": "01/24/2020",
      "age": 183,
      "showAlert": false
    },
    {
      "status": "Engaged",
      "providerEngagementRequestIdentifier": "380MR2016645815689",
      "providerName": "Dorian, John M.",
      "capabilityIndicatorDescription": "Stars Care Gap",
      "firstTimeSentToHostPlanDate": "01/24/2020",
      "age": 184,
      "showAlert": false
    },
    {
      "status": "Error",
      "providerEngagementRequestIdentifier": "380MR2018851515599",
      "providerName": "Howser, Douglas B.",
      "capabilityIndicatorDescription": "Stars Care Gap",
      "firstTimeSentToHostPlanDate": "01/15/2020",
      "age": 185,
      "showAlert": false
    },
    {
      "status": "Complete",
      "providerEngagementRequestIdentifier": "380MR2017784877311",
      "providerName": "Young, Andre R.",
      "capabilityIndicatorDescription": "Medical Record Retrieval",
      "firstTimeSentToHostPlanDate": "01/15/2020",
      "age": 186,
      "showAlert": false
    },
    {
      "status": "Complete",
      "providerEngagementRequestIdentifier": "380MR2015481568945",
      "providerName": "House, Gregory P.",
      "capabilityIndicatorDescription": "Stars Care Gap",
      "firstTimeSentToHostPlanDate": "01/15/2020",
      "age": 187,
      "showAlert": false
    },
    {
      "status": "Complete",
      "providerEngagementRequestIdentifier": "380MR2018898851207",
      "providerName": "Pierce, Benjamin F.",
      "capabilityIndicatorDescription": "Risk Adjustment Gap",
      "firstTimeSentToHostPlanDate": "01/01/2020",
      "age": 188,
      "showAlert": false
    },
    {
      "status": "Pending",
      "providerEngagementRequestIdentifier": "380MR2015565620011",
      "providerName": "Reid, Elliot S.",
      "capabilityIndicatorDescription": "Medical Record Retrieval",
      "firstTimeSentToHostPlanDate": "01/01/2020",
      "age": 189,
      "showAlert": true
    },
    {
      "status": "Complete",
      "providerEngagementRequestIdentifier": "380MR2015644518258",
      "providerName": "Quinn, Michaela A.",
      "capabilityIndicatorDescription": "Risk Adjustment Gap",
      "firstTimeSentToHostPlanDate": "01/01/2020",
      "age": 190,
      "showAlert": false
    },
    {
      "status": "NEW",
      "providerEngagementRequestIdentifier": "380MR2019061921001",
      "providerName": "Murphy, Shaun L.",
      "capabilityIndicatorDescription": "Stars Care Gap",
      "firstTimeSentToHostPlanDate": "02/23/2020",
      "age": 191,
      "showAlert": false
    },
    {
      "status": "Pending",
      "providerEngagementRequestIdentifier": "380MR2015481568945",
      "providerName": "McCoy, Leonard E.",
      "capabilityIndicatorDescription": "Risk Adjustment Gap",
      "firstTimeSentToHostPlanDate": "01/24/2020",
      "age": 192,
      "showAlert": false
    },
    {
      "status": "Pending",
      "providerEngagementRequestIdentifier": "380MR2018874519598",
      "providerName": "Pepper, Charles D.",
      "capabilityIndicatorDescription": "Medical Record Retrieval",
      "firstTimeSentToHostPlanDate": "01/24/2020",
      "age": 193,
      "showAlert": false
    },
    {
      "status": "Engaged",
      "providerEngagementRequestIdentifier": "380MR2016645815689",
      "providerName": "Dorian, John M.",
      "capabilityIndicatorDescription": "Stars Care Gap",
      "firstTimeSentToHostPlanDate": "01/24/2020",
      "age": 194,
      "showAlert": false
    },
    {
      "status": "Error",
      "providerEngagementRequestIdentifier": "380MR2018851515599",
      "providerName": "Howser, Douglas B.",
      "capabilityIndicatorDescription": "Stars Care Gap",
      "firstTimeSentToHostPlanDate": "01/15/2020",
      "age": 195,
      "showAlert": false
    },
    {
      "status": "Complete",
      "providerEngagementRequestIdentifier": "380MR2017784877311",
      "providerName": "Young, Andre R.",
      "capabilityIndicatorDescription": "Medical Record Retrieval",
      "firstTimeSentToHostPlanDate": "01/15/2020",
      "age": 196,
      "showAlert": false
    },
    {
      "status": "Complete",
      "providerEngagementRequestIdentifier": "380MR2015481568945",
      "providerName": "House, Gregory P.",
      "capabilityIndicatorDescription": "Stars Care Gap",
      "firstTimeSentToHostPlanDate": "01/15/2020",
      "age": 197,
      "showAlert": false
    },
    {
      "status": "Complete",
      "providerEngagementRequestIdentifier": "380MR2018898851207",
      "providerName": "Pierce, Benjamin F.",
      "capabilityIndicatorDescription": "Risk Adjustment Gap",
      "firstTimeSentToHostPlanDate": "01/01/2020",
      "age": 198,
      "showAlert": false
    },
    {
      "status": "Pending",
      "providerEngagementRequestIdentifier": "380MR2015565620011",
      "providerName": "Reid, Elliot S.",
      "capabilityIndicatorDescription": "Medical Record Retrieval",
      "firstTimeSentToHostPlanDate": "01/01/2020",
      "age": 199,
      "showAlert": true
    },
    {
      "status": "Complete",
      "providerEngagementRequestIdentifier": "380MR2015644518258",
      "providerName": "Quinn, Michaela A.",
      "capabilityIndicatorDescription": "Risk Adjustment Gap",
      "firstTimeSentToHostPlanDate": "01/01/2020",
      "age": 200,
      "showAlert": false
    },
    {
      "status": "NEW",
      "providerEngagementRequestIdentifier": "380MR2019061921001",
      "providerName": "Murphy, Shaun L.",
      "capabilityIndicatorDescription": "Stars Care Gap",
      "firstTimeSentToHostPlanDate": "02/23/2020",
      "age": 201,
      "showAlert": false
    },
    {
      "status": "Pending",
      "providerEngagementRequestIdentifier": "380MR2015481568945",
      "providerName": "McCoy, Leonard E.",
      "capabilityIndicatorDescription": "Risk Adjustment Gap",
      "firstTimeSentToHostPlanDate": "01/24/2020",
      "age": 202,
      "showAlert": false
    },
    {
      "status": "Pending",
      "providerEngagementRequestIdentifier": "380MR2018874519598",
      "providerName": "Pepper, Charles D.",
      "capabilityIndicatorDescription": "Medical Record Retrieval",
      "firstTimeSentToHostPlanDate": "01/24/2020",
      "age": 203,
      "showAlert": false
    },
    {
      "status": "Engaged",
      "providerEngagementRequestIdentifier": "380MR2016645815689",
      "providerName": "Dorian, John M.",
      "capabilityIndicatorDescription": "Stars Care Gap",
      "firstTimeSentToHostPlanDate": "01/24/2020",
      "age": 204,
      "showAlert": false
    },
    {
      "status": "Error",
      "providerEngagementRequestIdentifier": "380MR2018851515599",
      "providerName": "Howser, Douglas B.",
      "capabilityIndicatorDescription": "Stars Care Gap",
      "firstTimeSentToHostPlanDate": "01/15/2020",
      "age": 205,
      "showAlert": false
    },
    {
      "status": "Complete",
      "providerEngagementRequestIdentifier": "380MR2017784877311",
      "providerName": "Young, Andre R.",
      "capabilityIndicatorDescription": "Medical Record Retrieval",
      "firstTimeSentToHostPlanDate": "01/15/2020",
      "age": 206,
      "showAlert": false
    },
    {
      "status": "Complete",
      "providerEngagementRequestIdentifier": "380MR2015481568945",
      "providerName": "House, Gregory P.",
      "capabilityIndicatorDescription": "Stars Care Gap",
      "firstTimeSentToHostPlanDate": "01/15/2020",
      "age": 207,
      "showAlert": false
    },
    {
      "status": "Complete",
      "providerEngagementRequestIdentifier": "380MR2018898851207",
      "providerName": "Pierce, Benjamin F.",
      "capabilityIndicatorDescription": "Risk Adjustment Gap",
      "firstTimeSentToHostPlanDate": "01/01/2020",
      "age": 208,
      "showAlert": false
    },
    {
      "status": "Pending",
      "providerEngagementRequestIdentifier": "380MR2015565620011",
      "providerName": "Reid, Elliot S.",
      "capabilityIndicatorDescription": "Medical Record Retrieval",
      "firstTimeSentToHostPlanDate": "01/01/2020",
      "age": 209,
      "showAlert": true
    },
    {
      "status": "Complete",
      "providerEngagementRequestIdentifier": "380MR2015644518258",
      "providerName": "Quinn, Michaela A.",
      "capabilityIndicatorDescription": "Risk Adjustment Gap",
      "firstTimeSentToHostPlanDate": "01/01/2020",
      "age": 210,
      "showAlert": false
    },
    {
      "status": "NEW",
      "providerEngagementRequestIdentifier": "380MR2019061921001",
      "providerName": "Murphy, Shaun L.",
      "capabilityIndicatorDescription": "Stars Care Gap",
      "firstTimeSentToHostPlanDate": "02/23/2020",
      "age": 211,
      "showAlert": false
    },
    {
      "status": "Pending",
      "providerEngagementRequestIdentifier": "380MR2015481568945",
      "providerName": "McCoy, Leonard E.",
      "capabilityIndicatorDescription": "Risk Adjustment Gap",
      "firstTimeSentToHostPlanDate": "01/24/2020",
      "age": 212,
      "showAlert": false
    },
    {
      "status": "Pending",
      "providerEngagementRequestIdentifier": "380MR2018874519598",
      "providerName": "Pepper, Charles D.",
      "capabilityIndicatorDescription": "Medical Record Retrieval",
      "firstTimeSentToHostPlanDate": "01/24/2020",
      "age": 213,
      "showAlert": false
    },
    {
      "status": "Engaged",
      "providerEngagementRequestIdentifier": "380MR2016645815689",
      "providerName": "Dorian, John M.",
      "capabilityIndicatorDescription": "Stars Care Gap",
      "firstTimeSentToHostPlanDate": "01/24/2020",
      "age": 214,
      "showAlert": false
    },
    {
      "status": "Error",
      "providerEngagementRequestIdentifier": "380MR2018851515599",
      "providerName": "Howser, Douglas B.",
      "capabilityIndicatorDescription": "Stars Care Gap",
      "firstTimeSentToHostPlanDate": "01/15/2020",
      "age": 215,
      "showAlert": false
    },
    {
      "status": "Complete",
      "providerEngagementRequestIdentifier": "380MR2017784877311",
      "providerName": "Young, Andre R.",
      "capabilityIndicatorDescription": "Medical Record Retrieval",
      "firstTimeSentToHostPlanDate": "01/15/2020",
      "age": 216,
      "showAlert": false
    },
    {
      "status": "Complete",
      "providerEngagementRequestIdentifier": "380MR2015481568945",
      "providerName": "House, Gregory P.",
      "capabilityIndicatorDescription": "Stars Care Gap",
      "firstTimeSentToHostPlanDate": "01/15/2020",
      "age": 217,
      "showAlert": false
    },
    {
      "status": "Complete",
      "providerEngagementRequestIdentifier": "380MR2018898851207",
      "providerName": "Pierce, Benjamin F.",
      "capabilityIndicatorDescription": "Risk Adjustment Gap",
      "firstTimeSentToHostPlanDate": "01/01/2020",
      "age": 218,
      "showAlert": false
    },
    {
      "status": "Pending",
      "providerEngagementRequestIdentifier": "380MR2015565620011",
      "providerName": "Reid, Elliot S.",
      "capabilityIndicatorDescription": "Medical Record Retrieval",
      "firstTimeSentToHostPlanDate": "01/01/2020",
      "age": 219,
      "showAlert": true
    },
    {
      "status": "Complete",
      "providerEngagementRequestIdentifier": "380MR2015644518258",
      "providerName": "Quinn, Michaela A.",
      "capabilityIndicatorDescription": "Risk Adjustment Gap",
      "firstTimeSentToHostPlanDate": "01/01/2020",
      "age": 220,
      "showAlert": false
    },
    {
      "status": "NEW",
      "providerEngagementRequestIdentifier": "380MR2019061921001",
      "providerName": "Murphy, Shaun L.",
      "capabilityIndicatorDescription": "Stars Care Gap",
      "firstTimeSentToHostPlanDate": "02/23/2020",
      "age": 221,
      "showAlert": false
    },
    {
      "status": "Pending",
      "providerEngagementRequestIdentifier": "380MR2015481568945",
      "providerName": "McCoy, Leonard E.",
      "capabilityIndicatorDescription": "Risk Adjustment Gap",
      "firstTimeSentToHostPlanDate": "01/24/2020",
      "age": 222,
      "showAlert": false
    },
    {
      "status": "Pending",
      "providerEngagementRequestIdentifier": "380MR2018874519598",
      "providerName": "Pepper, Charles D.",
      "capabilityIndicatorDescription": "Medical Record Retrieval",
      "firstTimeSentToHostPlanDate": "01/24/2020",
      "age": 223,
      "showAlert": false
    },
    {
      "status": "Engaged",
      "providerEngagementRequestIdentifier": "380MR2016645815689",
      "providerName": "Dorian, John M.",
      "capabilityIndicatorDescription": "Stars Care Gap",
      "firstTimeSentToHostPlanDate": "01/24/2020",
      "age": 224,
      "showAlert": false
    },
    {
      "status": "Error",
      "providerEngagementRequestIdentifier": "380MR2018851515599",
      "providerName": "Howser, Douglas B.",
      "capabilityIndicatorDescription": "Stars Care Gap",
      "firstTimeSentToHostPlanDate": "01/15/2020",
      "age": 225,
      "showAlert": false
    },
    {
      "status": "Complete",
      "providerEngagementRequestIdentifier": "380MR2017784877311",
      "providerName": "Young, Andre R.",
      "capabilityIndicatorDescription": "Medical Record Retrieval",
      "firstTimeSentToHostPlanDate": "01/15/2020",
      "age": 226,
      "showAlert": false
    },
    {
      "status": "Complete",
      "providerEngagementRequestIdentifier": "380MR2015481568945",
      "providerName": "House, Gregory P.",
      "capabilityIndicatorDescription": "Stars Care Gap",
      "firstTimeSentToHostPlanDate": "01/15/2020",
      "age": 227,
      "showAlert": false
    },
    {
      "status": "Complete",
      "providerEngagementRequestIdentifier": "380MR2018898851207",
      "providerName": "Pierce, Benjamin F.",
      "capabilityIndicatorDescription": "Risk Adjustment Gap",
      "firstTimeSentToHostPlanDate": "01/01/2020",
      "age": 228,
      "showAlert": false
    },
    {
      "status": "Pending",
      "providerEngagementRequestIdentifier": "380MR2015565620011",
      "providerName": "Reid, Elliot S.",
      "capabilityIndicatorDescription": "Medical Record Retrieval",
      "firstTimeSentToHostPlanDate": "01/01/2020",
      "age": 229,
      "showAlert": true
    },
    {
      "status": "Complete",
      "providerEngagementRequestIdentifier": "380MR2015644518258",
      "providerName": "Quinn, Michaela A.",
      "capabilityIndicatorDescription": "Risk Adjustment Gap",
      "firstTimeSentToHostPlanDate": "01/01/2020",
      "age": 230,
      "showAlert": false
    },
    {
      "status": "NEW",
      "providerEngagementRequestIdentifier": "380MR2019061921001",
      "providerName": "Murphy, Shaun L.",
      "capabilityIndicatorDescription": "Stars Care Gap",
      "firstTimeSentToHostPlanDate": "02/23/2020",
      "age": 231,
      "showAlert": false
    },
    {
      "status": "Pending",
      "providerEngagementRequestIdentifier": "380MR2015481568945",
      "providerName": "McCoy, Leonard E.",
      "capabilityIndicatorDescription": "Risk Adjustment Gap",
      "firstTimeSentToHostPlanDate": "01/24/2020",
      "age": 232,
      "showAlert": false
    },
    {
      "status": "Pending",
      "providerEngagementRequestIdentifier": "380MR2018874519598",
      "providerName": "Pepper, Charles D.",
      "capabilityIndicatorDescription": "Medical Record Retrieval",
      "firstTimeSentToHostPlanDate": "01/24/2020",
      "age": 233,
      "showAlert": false
    },
    {
      "status": "Engaged",
      "providerEngagementRequestIdentifier": "380MR2016645815689",
      "providerName": "Dorian, John M.",
      "capabilityIndicatorDescription": "Stars Care Gap",
      "firstTimeSentToHostPlanDate": "01/24/2020",
      "age": 234,
      "showAlert": false
    },
    {
      "status": "Error",
      "providerEngagementRequestIdentifier": "380MR2018851515599",
      "providerName": "Howser, Douglas B.",
      "capabilityIndicatorDescription": "Stars Care Gap",
      "firstTimeSentToHostPlanDate": "01/15/2020",
      "age": 235,
      "showAlert": false
    },
    {
      "status": "Complete",
      "providerEngagementRequestIdentifier": "380MR2017784877311",
      "providerName": "Young, Andre R.",
      "capabilityIndicatorDescription": "Medical Record Retrieval",
      "firstTimeSentToHostPlanDate": "01/15/2020",
      "age": 236,
      "showAlert": false
    },
    {
      "status": "Complete",
      "providerEngagementRequestIdentifier": "380MR2015481568945",
      "providerName": "House, Gregory P.",
      "capabilityIndicatorDescription": "Stars Care Gap",
      "firstTimeSentToHostPlanDate": "01/15/2020",
      "age": 237,
      "showAlert": false
    },
    {
      "status": "Complete",
      "providerEngagementRequestIdentifier": "380MR2018898851207",
      "providerName": "Pierce, Benjamin F.",
      "capabilityIndicatorDescription": "Risk Adjustment Gap",
      "firstTimeSentToHostPlanDate": "01/01/2020",
      "age": 238,
      "showAlert": false
    },
    {
      "status": "Pending",
      "providerEngagementRequestIdentifier": "380MR2015565620011",
      "providerName": "Reid, Elliot S.",
      "capabilityIndicatorDescription": "Medical Record Retrieval",
      "firstTimeSentToHostPlanDate": "01/01/2020",
      "age": 239,
      "showAlert": true
    },
    {
      "status": "Complete",
      "providerEngagementRequestIdentifier": "380MR2015644518258",
      "providerName": "Quinn, Michaela A.",
      "capabilityIndicatorDescription": "Risk Adjustment Gap",
      "firstTimeSentToHostPlanDate": "01/01/2020",
      "age": 240,
      "showAlert": false
    },
    {
      "status": "NEW",
      "providerEngagementRequestIdentifier": "380MR2019061921001",
      "providerName": "Murphy, Shaun L.",
      "capabilityIndicatorDescription": "Stars Care Gap",
      "firstTimeSentToHostPlanDate": "02/23/2020",
      "age": 241,
      "showAlert": false
    },
    {
      "status": "Pending",
      "providerEngagementRequestIdentifier": "380MR2015481568945",
      "providerName": "McCoy, Leonard E.",
      "capabilityIndicatorDescription": "Risk Adjustment Gap",
      "firstTimeSentToHostPlanDate": "01/24/2020",
      "age": 242,
      "showAlert": false
    },
    {
      "status": "Pending",
      "providerEngagementRequestIdentifier": "380MR2018874519598",
      "providerName": "Pepper, Charles D.",
      "capabilityIndicatorDescription": "Medical Record Retrieval",
      "firstTimeSentToHostPlanDate": "01/24/2020",
      "age": 243,
      "showAlert": false
    },
    {
      "status": "Engaged",
      "providerEngagementRequestIdentifier": "380MR2016645815689",
      "providerName": "Dorian, John M.",
      "capabilityIndicatorDescription": "Stars Care Gap",
      "firstTimeSentToHostPlanDate": "01/24/2020",
      "age": 244,
      "showAlert": false
    },
    {
      "status": "Error",
      "providerEngagementRequestIdentifier": "380MR2018851515599",
      "providerName": "Howser, Douglas B.",
      "capabilityIndicatorDescription": "Stars Care Gap",
      "firstTimeSentToHostPlanDate": "01/15/2020",
      "age": 245,
      "showAlert": false
    },
    {
      "status": "Complete",
      "providerEngagementRequestIdentifier": "380MR2017784877311",
      "providerName": "Young, Andre R.",
      "capabilityIndicatorDescription": "Medical Record Retrieval",
      "firstTimeSentToHostPlanDate": "01/15/2020",
      "age": 246,
      "showAlert": false
    },
    {
      "status": "Complete",
      "providerEngagementRequestIdentifier": "380MR2015481568945",
      "providerName": "House, Gregory P.",
      "capabilityIndicatorDescription": "Stars Care Gap",
      "firstTimeSentToHostPlanDate": "01/15/2020",
      "age": 247,
      "showAlert": false
    },
    {
      "status": "Complete",
      "providerEngagementRequestIdentifier": "380MR2018898851207",
      "providerName": "Pierce, Benjamin F.",
      "capabilityIndicatorDescription": "Risk Adjustment Gap",
      "firstTimeSentToHostPlanDate": "01/01/2020",
      "age": 248,
      "showAlert": false
    },
    {
      "status": "Pending",
      "providerEngagementRequestIdentifier": "380MR2015565620011",
      "providerName": "Reid, Elliot S.",
      "capabilityIndicatorDescription": "Medical Record Retrieval",
      "firstTimeSentToHostPlanDate": "01/01/2020",
      "age": 249,
      "showAlert": true
    },
    {
      "status": "Complete",
      "providerEngagementRequestIdentifier": "380MR2015644518258",
      "providerName": "Quinn, Michaela A.",
      "capabilityIndicatorDescription": "Risk Adjustment Gap",
      "firstTimeSentToHostPlanDate": "01/01/2020",
      "age": 250,
      "showAlert": false
    },
    {
      "status": "NEW",
      "providerEngagementRequestIdentifier": "380MR2019061921001",
      "providerName": "Murphy, Shaun L.",
      "capabilityIndicatorDescription": "Stars Care Gap",
      "firstTimeSentToHostPlanDate": "02/23/2020",
      "age": 251,
      "showAlert": false
    },
    {
      "status": "Pending",
      "providerEngagementRequestIdentifier": "380MR2015481568945",
      "providerName": "McCoy, Leonard E.",
      "capabilityIndicatorDescription": "Risk Adjustment Gap",
      "firstTimeSentToHostPlanDate": "01/24/2020",
      "age": 252,
      "showAlert": false
    },
    {
      "status": "Pending",
      "providerEngagementRequestIdentifier": "380MR2018874519598",
      "providerName": "Pepper, Charles D.",
      "capabilityIndicatorDescription": "Medical Record Retrieval",
      "firstTimeSentToHostPlanDate": "01/24/2020",
      "age": 253,
      "showAlert": false
    },
    {
      "status": "Engaged",
      "providerEngagementRequestIdentifier": "380MR2016645815689",
      "providerName": "Dorian, John M.",
      "capabilityIndicatorDescription": "Stars Care Gap",
      "firstTimeSentToHostPlanDate": "01/24/2020",
      "age": 254,
      "showAlert": false
    },
    {
      "status": "Error",
      "providerEngagementRequestIdentifier": "380MR2018851515599",
      "providerName": "Howser, Douglas B.",
      "capabilityIndicatorDescription": "Stars Care Gap",
      "firstTimeSentToHostPlanDate": "01/15/2020",
      "age": 255,
      "showAlert": false
    },
    {
      "status": "Complete",
      "providerEngagementRequestIdentifier": "380MR2017784877311",
      "providerName": "Young, Andre R.",
      "capabilityIndicatorDescription": "Medical Record Retrieval",
      "firstTimeSentToHostPlanDate": "01/15/2020",
      "age": 256,
      "showAlert": false
    },
    {
      "status": "Complete",
      "providerEngagementRequestIdentifier": "380MR2015481568945",
      "providerName": "House, Gregory P.",
      "capabilityIndicatorDescription": "Stars Care Gap",
      "firstTimeSentToHostPlanDate": "01/15/2020",
      "age": 257,
      "showAlert": false
    },
    {
      "status": "Complete",
      "providerEngagementRequestIdentifier": "380MR2018898851207",
      "providerName": "Pierce, Benjamin F.",
      "capabilityIndicatorDescription": "Risk Adjustment Gap",
      "firstTimeSentToHostPlanDate": "01/01/2020",
      "age": 258,
      "showAlert": false
    },
    {
      "status": "Pending",
      "providerEngagementRequestIdentifier": "380MR2015565620011",
      "providerName": "Reid, Elliot S.",
      "capabilityIndicatorDescription": "Medical Record Retrieval",
      "firstTimeSentToHostPlanDate": "01/01/2020",
      "age": 259,
      "showAlert": true
    },
    {
      "status": "Complete",
      "providerEngagementRequestIdentifier": "380MR2015644518258",
      "providerName": "Quinn, Michaela A.",
      "capabilityIndicatorDescription": "Risk Adjustment Gap",
      "firstTimeSentToHostPlanDate": "01/01/2020",
      "age": 260,
      "showAlert": false
    },
    {
      "status": "NEW",
      "providerEngagementRequestIdentifier": "380MR2019061921001",
      "providerName": "Murphy, Shaun L.",
      "capabilityIndicatorDescription": "Stars Care Gap",
      "firstTimeSentToHostPlanDate": "02/23/2020",
      "age": 261,
      "showAlert": false
    },
    {
      "status": "Pending",
      "providerEngagementRequestIdentifier": "380MR2015481568945",
      "providerName": "McCoy, Leonard E.",
      "capabilityIndicatorDescription": "Risk Adjustment Gap",
      "firstTimeSentToHostPlanDate": "01/24/2020",
      "age": 262,
      "showAlert": false
    },
    {
      "status": "Pending",
      "providerEngagementRequestIdentifier": "380MR2018874519598",
      "providerName": "Pepper, Charles D.",
      "capabilityIndicatorDescription": "Medical Record Retrieval",
      "firstTimeSentToHostPlanDate": "01/24/2020",
      "age": 263,
      "showAlert": false
    },
    {
      "status": "Engaged",
      "providerEngagementRequestIdentifier": "380MR2016645815689",
      "providerName": "Dorian, John M.",
      "capabilityIndicatorDescription": "Stars Care Gap",
      "firstTimeSentToHostPlanDate": "01/24/2020",
      "age": 264,
      "showAlert": false
    },
    {
      "status": "Error",
      "providerEngagementRequestIdentifier": "380MR2018851515599",
      "providerName": "Howser, Douglas B.",
      "capabilityIndicatorDescription": "Stars Care Gap",
      "firstTimeSentToHostPlanDate": "01/15/2020",
      "age": 265,
      "showAlert": false
    },
    {
      "status": "Complete",
      "providerEngagementRequestIdentifier": "380MR2017784877311",
      "providerName": "Young, Andre R.",
      "capabilityIndicatorDescription": "Medical Record Retrieval",
      "firstTimeSentToHostPlanDate": "01/15/2020",
      "age": 266,
      "showAlert": false
    },
    {
      "status": "Complete",
      "providerEngagementRequestIdentifier": "380MR2015481568945",
      "providerName": "House, Gregory P.",
      "capabilityIndicatorDescription": "Stars Care Gap",
      "firstTimeSentToHostPlanDate": "01/15/2020",
      "age": 267,
      "showAlert": false
    },
    {
      "status": "Complete",
      "providerEngagementRequestIdentifier": "380MR2018898851207",
      "providerName": "Pierce, Benjamin F.",
      "capabilityIndicatorDescription": "Risk Adjustment Gap",
      "firstTimeSentToHostPlanDate": "01/01/2020",
      "age": 268,
      "showAlert": false
    },
    {
      "status": "Pending",
      "providerEngagementRequestIdentifier": "380MR2015565620011",
      "providerName": "Reid, Elliot S.",
      "capabilityIndicatorDescription": "Medical Record Retrieval",
      "firstTimeSentToHostPlanDate": "01/01/2020",
      "age": 269,
      "showAlert": true
    },
    {
      "status": "Complete",
      "providerEngagementRequestIdentifier": "380MR2015644518258",
      "providerName": "Quinn, Michaela A.",
      "capabilityIndicatorDescription": "Risk Adjustment Gap",
      "firstTimeSentToHostPlanDate": "01/01/2020",
      "age": 270,
      "showAlert": false
    },
    {
      "status": "NEW",
      "providerEngagementRequestIdentifier": "380MR2019061921001",
      "providerName": "Murphy, Shaun L.",
      "capabilityIndicatorDescription": "Stars Care Gap",
      "firstTimeSentToHostPlanDate": "02/23/2020",
      "age": 271,
      "showAlert": false
    },
    {
      "status": "Pending",
      "providerEngagementRequestIdentifier": "380MR2015481568945",
      "providerName": "McCoy, Leonard E.",
      "capabilityIndicatorDescription": "Risk Adjustment Gap",
      "firstTimeSentToHostPlanDate": "01/24/2020",
      "age": 272,
      "showAlert": false
    },
    {
      "status": "Pending",
      "providerEngagementRequestIdentifier": "380MR2018874519598",
      "providerName": "Pepper, Charles D.",
      "capabilityIndicatorDescription": "Medical Record Retrieval",
      "firstTimeSentToHostPlanDate": "01/24/2020",
      "age": 273,
      "showAlert": false
    },
    {
      "status": "Engaged",
      "providerEngagementRequestIdentifier": "380MR2016645815689",
      "providerName": "Dorian, John M.",
      "capabilityIndicatorDescription": "Stars Care Gap",
      "firstTimeSentToHostPlanDate": "01/24/2020",
      "age": 274,
      "showAlert": false
    },
    {
      "status": "Error",
      "providerEngagementRequestIdentifier": "380MR2018851515599",
      "providerName": "Howser, Douglas B.",
      "capabilityIndicatorDescription": "Stars Care Gap",
      "firstTimeSentToHostPlanDate": "01/15/2020",
      "age": 275,
      "showAlert": false
    },
    {
      "status": "Complete",
      "providerEngagementRequestIdentifier": "380MR2017784877311",
      "providerName": "Young, Andre R.",
      "capabilityIndicatorDescription": "Medical Record Retrieval",
      "firstTimeSentToHostPlanDate": "01/15/2020",
      "age": 276,
      "showAlert": false
    },
    {
      "status": "Complete",
      "providerEngagementRequestIdentifier": "380MR2015481568945",
      "providerName": "House, Gregory P.",
      "capabilityIndicatorDescription": "Stars Care Gap",
      "firstTimeSentToHostPlanDate": "01/15/2020",
      "age": 277,
      "showAlert": false
    },
    {
      "status": "Complete",
      "providerEngagementRequestIdentifier": "380MR2018898851207",
      "providerName": "Pierce, Benjamin F.",
      "capabilityIndicatorDescription": "Risk Adjustment Gap",
      "firstTimeSentToHostPlanDate": "01/01/2020",
      "age": 278,
      "showAlert": false
    },
    {
      "status": "Pending",
      "providerEngagementRequestIdentifier": "380MR2015565620011",
      "providerName": "Reid, Elliot S.",
      "capabilityIndicatorDescription": "Medical Record Retrieval",
      "firstTimeSentToHostPlanDate": "01/01/2020",
      "age": 279,
      "showAlert": true
    },
    {
      "status": "Complete",
      "providerEngagementRequestIdentifier": "380MR2015644518258",
      "providerName": "Quinn, Michaela A.",
      "capabilityIndicatorDescription": "Risk Adjustment Gap",
      "firstTimeSentToHostPlanDate": "01/01/2020",
      "age": 280,
      "showAlert": false
    },
    {
      "status": "NEW",
      "providerEngagementRequestIdentifier": "380MR2019061921001",
      "providerName": "Murphy, Shaun L.",
      "capabilityIndicatorDescription": "Stars Care Gap",
      "firstTimeSentToHostPlanDate": "02/23/2020",
      "age": 281,
      "showAlert": false
    },
    {
      "status": "Pending",
      "providerEngagementRequestIdentifier": "380MR2015481568945",
      "providerName": "McCoy, Leonard E.",
      "capabilityIndicatorDescription": "Risk Adjustment Gap",
      "firstTimeSentToHostPlanDate": "01/24/2020",
      "age": 282,
      "showAlert": false
    },
    {
      "status": "Pending",
      "providerEngagementRequestIdentifier": "380MR2018874519598",
      "providerName": "Pepper, Charles D.",
      "capabilityIndicatorDescription": "Medical Record Retrieval",
      "firstTimeSentToHostPlanDate": "01/24/2020",
      "age": 283,
      "showAlert": false
    },
    {
      "status": "Engaged",
      "providerEngagementRequestIdentifier": "380MR2016645815689",
      "providerName": "Dorian, John M.",
      "capabilityIndicatorDescription": "Stars Care Gap",
      "firstTimeSentToHostPlanDate": "01/24/2020",
      "age": 284,
      "showAlert": false
    },
    {
      "status": "Error",
      "providerEngagementRequestIdentifier": "380MR2018851515599",
      "providerName": "Howser, Douglas B.",
      "capabilityIndicatorDescription": "Stars Care Gap",
      "firstTimeSentToHostPlanDate": "01/15/2020",
      "age": 285,
      "showAlert": false
    },
    {
      "status": "Complete",
      "providerEngagementRequestIdentifier": "380MR2017784877311",
      "providerName": "Young, Andre R.",
      "capabilityIndicatorDescription": "Medical Record Retrieval",
      "firstTimeSentToHostPlanDate": "01/15/2020",
      "age": 286,
      "showAlert": false
    },
    {
      "status": "Complete",
      "providerEngagementRequestIdentifier": "380MR2015481568945",
      "providerName": "House, Gregory P.",
      "capabilityIndicatorDescription": "Stars Care Gap",
      "firstTimeSentToHostPlanDate": "01/15/2020",
      "age": 287,
      "showAlert": false
    },
    {
      "status": "Complete",
      "providerEngagementRequestIdentifier": "380MR2018898851207",
      "providerName": "Pierce, Benjamin F.",
      "capabilityIndicatorDescription": "Risk Adjustment Gap",
      "firstTimeSentToHostPlanDate": "01/01/2020",
      "age": 288,
      "showAlert": false
    },
    {
      "status": "Pending",
      "providerEngagementRequestIdentifier": "380MR2015565620011",
      "providerName": "Reid, Elliot S.",
      "capabilityIndicatorDescription": "Medical Record Retrieval",
      "firstTimeSentToHostPlanDate": "01/01/2020",
      "age": 289,
      "showAlert": true
    },
    {
      "status": "Complete",
      "providerEngagementRequestIdentifier": "380MR2015644518258",
      "providerName": "Quinn, Michaela A.",
      "capabilityIndicatorDescription": "Risk Adjustment Gap",
      "firstTimeSentToHostPlanDate": "01/01/2020",
      "age": 290,
      "showAlert": false
    },
    {
      "status": "NEW",
      "providerEngagementRequestIdentifier": "380MR2019061921001",
      "providerName": "Murphy, Shaun L.",
      "capabilityIndicatorDescription": "Stars Care Gap",
      "firstTimeSentToHostPlanDate": "02/23/2020",
      "age": 291,
      "showAlert": false
    },
    {
      "status": "Pending",
      "providerEngagementRequestIdentifier": "380MR2015481568945",
      "providerName": "McCoy, Leonard E.",
      "capabilityIndicatorDescription": "Risk Adjustment Gap",
      "firstTimeSentToHostPlanDate": "01/24/2020",
      "age": 292,
      "showAlert": false
    },
    {
      "status": "Pending",
      "providerEngagementRequestIdentifier": "380MR2018874519598",
      "providerName": "Pepper, Charles D.",
      "capabilityIndicatorDescription": "Medical Record Retrieval",
      "firstTimeSentToHostPlanDate": "01/24/2020",
      "age": 293,
      "showAlert": false
    },
    {
      "status": "Engaged",
      "providerEngagementRequestIdentifier": "380MR2016645815689",
      "providerName": "Dorian, John M.",
      "capabilityIndicatorDescription": "Stars Care Gap",
      "firstTimeSentToHostPlanDate": "01/24/2020",
      "age": 294,
      "showAlert": false
    },
    {
      "status": "Error",
      "providerEngagementRequestIdentifier": "380MR2018851515599",
      "providerName": "Howser, Douglas B.",
      "capabilityIndicatorDescription": "Stars Care Gap",
      "firstTimeSentToHostPlanDate": "01/15/2020",
      "age": 295,
      "showAlert": false
    },
    {
      "status": "Complete",
      "providerEngagementRequestIdentifier": "380MR2017784877311",
      "providerName": "Young, Andre R.",
      "capabilityIndicatorDescription": "Medical Record Retrieval",
      "firstTimeSentToHostPlanDate": "01/15/2020",
      "age": 296,
      "showAlert": false
    },
    {
      "status": "Complete",
      "providerEngagementRequestIdentifier": "380MR2015481568945",
      "providerName": "House, Gregory P.",
      "capabilityIndicatorDescription": "Stars Care Gap",
      "firstTimeSentToHostPlanDate": "01/15/2020",
      "age": 297,
      "showAlert": false
    },
    {
      "status": "Complete",
      "providerEngagementRequestIdentifier": "380MR2018898851207",
      "providerName": "Pierce, Benjamin F.",
      "capabilityIndicatorDescription": "Risk Adjustment Gap",
      "firstTimeSentToHostPlanDate": "01/01/2020",
      "age": 298,
      "showAlert": false
    },
    {
      "status": "Pending",
      "providerEngagementRequestIdentifier": "380MR2015565620011",
      "providerName": "Reid, Elliot S.",
      "capabilityIndicatorDescription": "Medical Record Retrieval",
      "firstTimeSentToHostPlanDate": "01/01/2020",
      "age": 299,
      "showAlert": true
    },
    {
      "status": "Complete",
      "providerEngagementRequestIdentifier": "380MR2015644518258",
      "providerName": "Quinn, Michaela A.",
      "capabilityIndicatorDescription": "Risk Adjustment Gap",
      "firstTimeSentToHostPlanDate": "01/01/2020",
      "age": 300,
      "showAlert": false
    },
    {
      "status": "NEW",
      "providerEngagementRequestIdentifier": "380MR2019061921001",
      "providerName": "Murphy, Shaun L.",
      "capabilityIndicatorDescription": "Stars Care Gap",
      "firstTimeSentToHostPlanDate": "02/23/2020",
      "age": 301,
      "showAlert": false
    },
    {
      "status": "Pending",
      "providerEngagementRequestIdentifier": "380MR2015481568945",
      "providerName": "McCoy, Leonard E.",
      "capabilityIndicatorDescription": "Risk Adjustment Gap",
      "firstTimeSentToHostPlanDate": "01/24/2020",
      "age": 302,
      "showAlert": false
    },
    {
      "status": "Pending",
      "providerEngagementRequestIdentifier": "380MR2018874519598",
      "providerName": "Pepper, Charles D.",
      "capabilityIndicatorDescription": "Medical Record Retrieval",
      "firstTimeSentToHostPlanDate": "01/24/2020",
      "age": 303,
      "showAlert": false
    },
    {
      "status": "Engaged",
      "providerEngagementRequestIdentifier": "380MR2016645815689",
      "providerName": "Dorian, John M.",
      "capabilityIndicatorDescription": "Stars Care Gap",
      "firstTimeSentToHostPlanDate": "01/24/2020",
      "age": 304,
      "showAlert": false
    },
    {
      "status": "Error",
      "providerEngagementRequestIdentifier": "380MR2018851515599",
      "providerName": "Howser, Douglas B.",
      "capabilityIndicatorDescription": "Stars Care Gap",
      "firstTimeSentToHostPlanDate": "01/15/2020",
      "age": 305,
      "showAlert": false
    },
    {
      "status": "Complete",
      "providerEngagementRequestIdentifier": "380MR2017784877311",
      "providerName": "Young, Andre R.",
      "capabilityIndicatorDescription": "Medical Record Retrieval",
      "firstTimeSentToHostPlanDate": "01/15/2020",
      "age": 306,
      "showAlert": false
    },
    {
      "status": "Complete",
      "providerEngagementRequestIdentifier": "380MR2015481568945",
      "providerName": "House, Gregory P.",
      "capabilityIndicatorDescription": "Stars Care Gap",
      "firstTimeSentToHostPlanDate": "01/15/2020",
      "age": 307,
      "showAlert": false
    },
    {
      "status": "Complete",
      "providerEngagementRequestIdentifier": "380MR2018898851207",
      "providerName": "Pierce, Benjamin F.",
      "capabilityIndicatorDescription": "Risk Adjustment Gap",
      "firstTimeSentToHostPlanDate": "01/01/2020",
      "age": 308,
      "showAlert": false
    },
    {
      "status": "Pending",
      "providerEngagementRequestIdentifier": "380MR2015565620011",
      "providerName": "Reid, Elliot S.",
      "capabilityIndicatorDescription": "Medical Record Retrieval",
      "firstTimeSentToHostPlanDate": "01/01/2020",
      "age": 309,
      "showAlert": true
    },
    {
      "status": "Complete",
      "providerEngagementRequestIdentifier": "380MR2015644518258",
      "providerName": "Quinn, Michaela A.",
      "capabilityIndicatorDescription": "Risk Adjustment Gap",
      "firstTimeSentToHostPlanDate": "01/01/2020",
      "age": 310,
      "showAlert": false
    },
    {
      "status": "NEW",
      "providerEngagementRequestIdentifier": "380MR2019061921001",
      "providerName": "Murphy, Shaun L.",
      "capabilityIndicatorDescription": "Stars Care Gap",
      "firstTimeSentToHostPlanDate": "02/23/2020",
      "age": 311,
      "showAlert": false
    },
    {
      "status": "Pending",
      "providerEngagementRequestIdentifier": "380MR2015481568945",
      "providerName": "McCoy, Leonard E.",
      "capabilityIndicatorDescription": "Risk Adjustment Gap",
      "firstTimeSentToHostPlanDate": "01/24/2020",
      "age": 312,
      "showAlert": false
    },
    {
      "status": "Pending",
      "providerEngagementRequestIdentifier": "380MR2018874519598",
      "providerName": "Pepper, Charles D.",
      "capabilityIndicatorDescription": "Medical Record Retrieval",
      "firstTimeSentToHostPlanDate": "01/24/2020",
      "age": 313,
      "showAlert": false
    }
  ]
}